<?xml version="1.0" encoding="UTF-8"?>
<svg width="62px" height="10px" viewBox="0 0 62 10" version="1.1" xmlns="http://www.w3.org/2000/svg" xmlns:xlink="http://www.w3.org/1999/xlink">
    <!-- Generator: Sketch 52.3 (67297) - http://www.bohemiancoding.com/sketch -->
    <title>Rectangle Copy 24</title>
    <desc>Created with Sketch.</desc>
    <defs>
        <path d="M5,10 C2.23857625,10 0,7.76142375 0,5 C0,2.23857625 2.23857625,0 5,0 C7.76142375,0 10,2.23857625 10,5 C10,7.76142375 7.76142375,10 5,10 Z M31,10 C28.2385763,10 26,7.76142375 26,5 C26,2.23857625 28.2385763,0 31,0 C33.7614237,0 36,2.23857625 36,5 C36,7.76142375 33.7614237,10 31,10 Z M18,10 C15.2385763,10 13,7.76142375 13,5 C13,2.23857625 15.2385763,0 18,0 C20.7614237,0 23,2.23857625 23,5 C23,7.76142375 20.7614237,10 18,10 Z M44,10 C41.2385763,10 39,7.76142375 39,5 C39,2.23857625 41.2385763,0 44,0 C46.7614237,0 49,2.23857625 49,5 C49,7.76142375 46.7614237,10 44,10 Z M57,10 C54.2385763,10 52,7.76142375 52,5 C52,2.23857625 54.2385763,0 57,0 C59.7614237,0 62,2.23857625 62,5 C62,7.76142375 59.7614237,10 57,10 Z" id="path-1"></path>
    </defs>
    <g id="Page-2" stroke="none" stroke-width="1" fill="none" fill-rule="evenodd">
        <g id="Rectangle-Copy-24">
            <mask id="mask-2" fill="white">
                <use xlink:href="#path-1"></use>
            </mask>
            <use id="Mask" fill="#ECECEC" xlink:href="#path-1"></use>
            <rect id="Rectangle" fill="#F9BF38" mask="url(#mask-2)" x="0" y="0" width="57" height="10"></rect>
        </g>
    </g>
</svg>